{
  "$schema": "0-3-0/system.schema.json",
  "system0": {
    "class": "System",
    "connections": [
      ["tank1.flnum_in", "p1.flnum_out"],
      ["p2.flnum_in", "tank1.flnum_out"]
    ],
    "subsystems": {
      "p1": {
        "class": "pressurelossvarious.PressureLoss0D",
        "inputs": {
          "flnum_in.Pt": 100000.0,
          "flnum_in.W": 10.0
        }
      },
      "tank1": {
        "class": "pressurelossvarious.Tank",
        "inputs": {
          "inwards.vol": 10.0,
          "inwards.volMax": 100.0,
          "inwards.W_out_tank": 1.0,
          "time_.deltaTime": 0.1
        }
      },
      "p2": {
        "class": "pressurelossvarious.PressureLoss0D"
      }
    }
  }
}