{
  "$schema": "0-3-0/system.schema.json",
  "system0": {
    "class": "pressurelossvarious.PressureLossSys",
    "connections": [
      ["p2.flnum_in", "p1.flnum_out"]
    ],
    "subsystems": {
      "p1": {
        "class": "pressurelossvarious.PressureLossSys",
        "connections": [
          ["p12.flnum_in", "p11.flnum_out"],
          ["flnum_out", "p12.flnum_out"]
        ],
        "subsystems": {
          "p11": {
            "class": "pressurelossvarious.PressureLoss0D",
            "inputs": {
              "flnum_in.Pt": 100000.0,
              "flnum_in.W": 10.0
            }
          },
          "p12": {
            "class": "pressurelossvarious.PressureLoss0D"
          }
        }
      },
      "p2": {
        "class": "pressurelossvarious.PressureLoss0D"
      }
    }
  }
}
