<?xml version="1.0" encoding="UTF-8" standalone="no"?>
<svg
   xmlns:dc="http://purl.org/dc/elements/1.1/"
   xmlns:cc="http://creativecommons.org/ns#"
   xmlns:rdf="http://www.w3.org/1999/02/22-rdf-syntax-ns#"
   xmlns:svg="http://www.w3.org/2000/svg"
   xmlns="http://www.w3.org/2000/svg"
   xmlns:sodipodi="http://sodipodi.sourceforge.net/DTD/sodipodi-0.dtd"
   xmlns:inkscape="http://www.inkscape.org/namespaces/inkscape"
   version="1.0"
   width="700"
   viewBox="0 0 860 290"
   id="svg1179"
   sodipodi:docname="drivers_1.svg"
   inkscape:version="0.92.2 (5c3e80d, 2017-08-06)">
  <metadata
     id="metadata1183">
    <rdf:RDF>
      <cc:Work
         rdf:about="">
        <dc:format>image/svg+xml</dc:format>
        <dc:type
           rdf:resource="http://purl.org/dc/dcmitype/StillImage" />
        <dc:title></dc:title>
      </cc:Work>
    </rdf:RDF>
  </metadata>
  <sodipodi:namedview
     pagecolor="#ffffff"
     bordercolor="#666666"
     borderopacity="1"
     objecttolerance="10"
     gridtolerance="10"
     guidetolerance="10"
     inkscape:pageopacity="0"
     inkscape:pageshadow="2"
     inkscape:window-width="1680"
     inkscape:window-height="1028"
     id="namedview1181"
     showgrid="false"
     fit-margin-top="0"
     fit-margin-left="0"
     fit-margin-right="0"
     fit-margin-bottom="0"
     inkscape:zoom="0.32364934"
     inkscape:cx="437.20573"
     inkscape:cy="144.20331"
     inkscape:window-x="-8"
     inkscape:window-y="-8"
     inkscape:window-maximized="1"
     inkscape:current-layer="svg1179" />
  <defs
     id="defs997">
    <pattern
       id="EMFhbasepattern"
       patternUnits="userSpaceOnUse"
       width="6"
       height="6"
       x="0"
       y="0" />
  </defs>
  <path
     style="fill:none;stroke:#7f7f7f;stroke-width:2.65475559px;stroke-linecap:butt;stroke-linejoin:miter;stroke-miterlimit:8;stroke-dasharray:none;stroke-opacity:1"
     d="m 87.283812,95.980399 c 0,-15.150076 12.295709,-27.445786 27.445778,-27.445786 H 349.6056 c 15.15008,0 27.44579,12.29571 27.44579,27.445786 V 205.76352 c 0,15.17004 -12.29571,27.44579 -27.44579,27.44579 H 114.72959 c -15.150069,0 -27.445778,-12.27575 -27.445778,-27.44579 z"
     id="path999"
     inkscape:connector-curvature="0" />
  <path
     style="fill:#ffffff;fill-opacity:1;fill-rule:evenodd;stroke:none"
     d="m 75.966169,123.92519 c 0,-6.24766 5.069985,-11.31764 11.317643,-11.31764 6.247658,0 11.307659,5.06998 11.307659,11.31764 0,6.24766 -5.060001,11.30766 -11.307659,11.30766 -6.247658,0 -11.317643,-5.06 -11.317643,-11.30766 z"
     id="path1001"
     inkscape:connector-curvature="0" />
  <path
     style="fill:none;stroke:#ed7d31;stroke-width:2.66473603px;stroke-linecap:butt;stroke-linejoin:miter;stroke-miterlimit:8;stroke-dasharray:none;stroke-opacity:1"
     d="m 75.966169,123.92519 c 0,-6.24766 5.069985,-11.31764 11.317643,-11.31764 6.247658,0 11.307659,5.06998 11.307659,11.31764 0,6.24766 -5.060001,11.30766 -11.307659,11.30766 -6.247658,0 -11.317643,-5.06 -11.317643,-11.30766"
     id="path1003"
     inkscape:connector-curvature="0" />
  <path
     style="fill:#ffffff;fill-opacity:1;fill-rule:evenodd;stroke:none"
     d="m 209.54229,68.534613 c 0,-6.247658 5.06999,-11.317643 11.31765,-11.317643 6.24765,0 11.29768,5.069985 11.29768,11.317643 0,6.247658 -5.05003,11.317642 -11.29768,11.317642 -6.24766,0 -11.31765,-5.069984 -11.31765,-11.317642 z"
     id="path1005"
     inkscape:connector-curvature="0" />
  <path
     style="fill:none;stroke:#ffc000;stroke-width:2.65475559px;stroke-linecap:butt;stroke-linejoin:miter;stroke-miterlimit:8;stroke-dasharray:none;stroke-opacity:1"
     d="m 209.54229,68.534613 c 0,-6.247658 5.06999,-11.317643 11.31765,-11.317643 6.24765,0 11.29768,5.069985 11.29768,11.317643 0,6.247658 -5.05003,11.317642 -11.29768,11.317642 -6.24766,0 -11.31765,-5.069984 -11.31765,-11.317642"
     id="path1007"
     inkscape:connector-curvature="0" />
  <path
     style="fill:#ffffff;fill-opacity:1;fill-rule:evenodd;stroke:none"
     d="m 365.73374,162.1896 c 0,-6.24766 5.06999,-11.31764 11.31765,-11.31764 6.24765,0 11.29768,5.06998 11.29768,11.31764 0,6.24766 -5.05003,11.29768 -11.29768,11.29768 -6.24766,0 -11.31765,-5.05002 -11.31765,-11.29768 z"
     id="path1009"
     inkscape:connector-curvature="0" />
  <path
     style="fill:none;stroke:#92d050;stroke-width:2.65475559px;stroke-linecap:butt;stroke-linejoin:miter;stroke-miterlimit:8;stroke-dasharray:none;stroke-opacity:1"
     d="m 365.73374,162.1896 c 0,-6.24766 5.06999,-11.31764 11.31765,-11.31764 6.24765,0 11.29768,5.06998 11.29768,11.31764 0,6.24766 -5.05003,11.29768 -11.29768,11.29768 -6.24766,0 -11.31765,-5.05002 -11.31765,-11.29768"
     id="path1011"
     inkscape:connector-curvature="0" />
  <path
     style="fill:#ffc000;fill-opacity:1;fill-rule:nonzero;stroke:#ffc000;stroke-width:0.01996057px;stroke-linecap:butt;stroke-linejoin:round;stroke-miterlimit:10;stroke-dasharray:none;stroke-opacity:1"
     d="M 222.17733,0.00998028 V 49.931363 h -2.65475 V 0.00998028 Z m 2.67472,48.58402472 -3.99211,7.984227 -3.99212,-7.984227 z"
     id="path1013"
     inkscape:connector-curvature="0" />
  <path
     style="fill:#ed7d31;fill-opacity:1;fill-rule:nonzero;stroke:#ed7d31;stroke-width:0.00998028px;stroke-linecap:butt;stroke-linejoin:round;stroke-miterlimit:10;stroke-dasharray:none;stroke-opacity:1"
     d="M 19.417878,123.25651 H 69.33926 v 2.66474 H 19.417878 Z m 48.594005,-2.66473 7.984227,3.99211 -7.984227,3.99211 z"
     id="path1015"
     inkscape:connector-curvature="0" />
  <path
     style="fill:#92d050;fill-opacity:1;fill-rule:nonzero;stroke:#92d050;stroke-width:0.01996057px;stroke-linecap:butt;stroke-linejoin:round;stroke-miterlimit:10;stroke-dasharray:none;stroke-opacity:1"
     d="m 388.34907,160.85224 h 49.94134 v 2.65476 h -49.94134 z m 48.60398,-2.65475 7.98423,3.99211 -7.98423,3.99212 z"
     id="path1017"
     inkscape:connector-curvature="0" />
  <text
     xml:space="preserve"
     style="font-style:normal;font-variant:normal;font-weight:400;font-size:37.1875px;line-height:125%;font-family:Arial;text-align:start;letter-spacing:0px;word-spacing:0px;text-anchor:start;fill:#000000;fill-opacity:1;stroke:none"
     x="123.21326"
     y="185.02496"
     id="text1023"><tspan
       sodipodi:role="line"
       x="123.21326"
       y="185.02496"
       id="tspan1021"><tspan
         dx="0"
         dy="0"
         style="font-style:normal;font-variant:normal;font-weight:400;font-size:37.1875px;font-family:Arial;fill:#7f7f7f"
         id="tspan1019">m</tspan></tspan></text>
  <text
     xml:space="preserve"
     style="font-style:normal;font-variant:normal;font-weight:400;font-size:37.1875px;line-height:125%;font-family:Arial;text-align:start;letter-spacing:0px;word-spacing:0px;text-anchor:start;fill:#000000;fill-opacity:1;stroke:none"
     x="152.9146"
     y="185.02496"
     id="text1029"><tspan
       sodipodi:role="line"
       x="152.9146"
       y="185.02496"
       id="tspan1027"><tspan
         dx="0"
         dy="0"
         style="font-style:normal;font-variant:normal;font-weight:400;font-size:37.1875px;font-family:Arial;fill:#7f7f7f"
         id="tspan1025">ult</tspan></tspan></text>
  <text
     xml:space="preserve"
     style="font-style:italic;font-variant:normal;font-weight:400;font-size:23.9375px;line-height:125%;font-family:Arial;text-align:start;letter-spacing:0px;word-spacing:0px;text-anchor:start;fill:#000000;fill-opacity:1;stroke:none"
     x="123.21326"
     y="217.28123"
     id="text1035"><tspan
       sodipodi:role="line"
       x="123.21326"
       y="217.28123"
       id="tspan1033"><tspan
         dx="0"
         dy="0"
         style="font-style:italic;font-variant:normal;font-weight:400;font-size:23.9375px;font-family:Arial;fill:#7f7f7f"
         id="tspan1031">c</tspan></tspan></text>
  <text
     xml:space="preserve"
     style="font-style:italic;font-variant:normal;font-weight:400;font-size:23.9375px;line-height:125%;font-family:Arial;text-align:start;letter-spacing:0px;word-spacing:0px;text-anchor:start;fill:#000000;fill-opacity:1;stroke:none"
     x="133.11369"
     y="217.28123"
     id="text1041"><tspan
       sodipodi:role="line"
       x="133.11369"
       y="217.28123"
       id="tspan1039"><tspan
         dx="0"
         dy="0"
         style="font-style:italic;font-variant:normal;font-weight:400;font-size:23.9375px;font-family:Arial;fill:#7f7f7f"
         id="tspan1037">lass: </tspan></tspan></text>
  <text
     xml:space="preserve"
     style="font-style:italic;font-variant:normal;font-weight:400;font-size:23.9375px;line-height:125%;font-family:Arial;text-align:start;letter-spacing:0px;word-spacing:0px;text-anchor:start;fill:#000000;fill-opacity:1;stroke:none"
     x="181.65781"
     y="217.28123"
     id="text1047"><tspan
       sodipodi:role="line"
       x="181.65781"
       y="217.28123"
       id="tspan1045"><tspan
         dx="0"
         dy="0"
         style="font-style:italic;font-variant:normal;font-weight:400;font-size:23.9375px;font-family:Arial;fill:#7f7f7f"
         id="tspan1043">Multiply</tspan></tspan></text>
  <text
     xml:space="preserve"
     style="font-style:normal;font-variant:normal;font-weight:400;font-size:23.9375px;line-height:125%;font-family:Arial;text-align:start;letter-spacing:0px;word-spacing:0px;text-anchor:start;fill:#000000;fill-opacity:1;stroke:none"
     x="235.85551"
     y="18.606739"
     id="text1053"><tspan
       sodipodi:role="line"
       x="235.85551"
       y="18.606739"
       id="tspan1051"><tspan
         dx="0"
         dy="0"
         style="font-style:normal;font-variant:normal;font-weight:400;font-size:23.9375px;font-family:Arial;fill:#ffc000"
         id="tspan1049">d</tspan></tspan></text>
  <text
     xml:space="preserve"
     style="font-style:normal;font-variant:normal;font-weight:400;font-size:23.9375px;line-height:125%;font-family:Arial;text-align:start;letter-spacing:0px;word-spacing:0px;text-anchor:start;fill:#000000;fill-opacity:1;stroke:none"
     x="248.4706"
     y="18.606739"
     id="text1059"><tspan
       sodipodi:role="line"
       x="248.4706"
       y="18.606739"
       id="tspan1057"><tspan
         dx="0"
         dy="0"
         style="font-style:normal;font-variant:normal;font-weight:400;font-size:23.9375px;font-family:Arial;fill:#ffc000"
         id="tspan1055">ata {K1}</tspan></tspan></text>
  <text
     xml:space="preserve"
     style="font-style:normal;font-variant:normal;font-weight:400;font-size:23.9375px;line-height:125%;font-family:Arial;text-align:start;letter-spacing:0px;word-spacing:0px;text-anchor:start;fill:#000000;fill-opacity:1;stroke:none"
     x="-1.5779114"
     y="162.42552"
     id="text1065"><tspan
       sodipodi:role="line"
       x="-1.5779114"
       y="162.42552"
       id="tspan1063"><tspan
         dx="0"
         dy="0"
         style="font-style:normal;font-variant:normal;font-weight:400;font-size:23.9375px;font-family:Arial;fill:#ed7d31"
         id="tspan1061">p</tspan></tspan></text>
  <text
     xml:space="preserve"
     style="font-style:normal;font-variant:normal;font-weight:400;font-size:23.9375px;line-height:125%;font-family:Arial;text-align:start;letter-spacing:0px;word-spacing:0px;text-anchor:start;fill:#000000;fill-opacity:1;stroke:none"
     x="11.037168"
     y="162.42552"
     id="text1071"><tspan
       sodipodi:role="line"
       x="11.037168"
       y="162.42552"
       id="tspan1069"><tspan
         dx="0"
         dy="0"
         style="font-style:normal;font-variant:normal;font-weight:400;font-size:23.9375px;font-family:Arial;fill:#ed7d31"
         id="tspan1067">_in</tspan></tspan></text>
  <text
     xml:space="preserve"
     style="font-style:normal;font-variant:normal;font-weight:400;font-size:23.9375px;line-height:125%;font-family:Arial;text-align:start;letter-spacing:0px;word-spacing:0px;text-anchor:start;fill:#000000;fill-opacity:1;stroke:none"
     x="46.646824"
     y="162.42552"
     id="text1077"><tspan
       sodipodi:role="line"
       x="46.646824"
       y="162.42552"
       id="tspan1075"><tspan
         dx="0"
         dy="0"
         style="font-style:normal;font-variant:normal;font-weight:400;font-size:23.9375px;font-family:Arial;fill:#ed7d31"
         id="tspan1073">{x}</tspan></tspan></text>
  <text
     xml:space="preserve"
     style="font-style:normal;font-variant:normal;font-weight:400;font-size:23.9375px;line-height:125%;font-family:Arial;text-align:start;letter-spacing:0px;word-spacing:0px;text-anchor:start;fill:#000000;fill-opacity:1;stroke:none"
     x="398.05676"
     y="200.73303"
     id="text1083"><tspan
       sodipodi:role="line"
       x="398.05676"
       y="200.73303"
       id="tspan1081"><tspan
         dx="0"
         dy="0"
         style="font-style:normal;font-variant:normal;font-weight:400;font-size:23.9375px;font-family:Arial;fill:#92d050"
         id="tspan1079">p</tspan></tspan></text>
  <text
     xml:space="preserve"
     style="font-style:normal;font-variant:normal;font-weight:400;font-size:23.9375px;line-height:125%;font-family:Arial;text-align:start;letter-spacing:0px;word-spacing:0px;text-anchor:start;fill:#000000;fill-opacity:1;stroke:none"
     x="410.67184"
     y="200.73303"
     id="text1089"><tspan
       sodipodi:role="line"
       x="410.67184"
       y="200.73303"
       id="tspan1087"><tspan
         dx="0"
         dy="0"
         style="font-style:normal;font-variant:normal;font-weight:400;font-size:23.9375px;font-family:Arial;fill:#92d050"
         id="tspan1085">_out</tspan></tspan></text>
  <text
     xml:space="preserve"
     style="font-style:normal;font-variant:normal;font-weight:400;font-size:23.9375px;line-height:125%;font-family:Arial;text-align:start;letter-spacing:0px;word-spacing:0px;text-anchor:start;fill:#000000;fill-opacity:1;stroke:none"
     x="461.45154"
     y="200.73303"
     id="text1095"><tspan
       sodipodi:role="line"
       x="461.45154"
       y="200.73303"
       id="tspan1093"><tspan
         dx="0"
         dy="0"
         style="font-style:normal;font-variant:normal;font-weight:400;font-size:23.9375px;font-family:Arial;fill:#92d050"
         id="tspan1091">{x}</tspan></tspan></text>
  <text
     xml:space="preserve"
     style="font-style:italic;font-variant:normal;font-weight:400;font-size:15.9375px;line-height:125%;font-family:Arial;text-align:start;letter-spacing:0px;word-spacing:0px;text-anchor:start;fill:#000000;fill-opacity:1;stroke:none"
     x="212.63158"
     y="109.47793"
     id="text1101"><tspan
       sodipodi:role="line"
       x="212.63158"
       y="109.47793"
       id="tspan1099"><tspan
         dx="0"
         dy="0"
         style="font-style:italic;font-variant:normal;font-weight:400;font-size:15.9375px;font-family:Arial;fill:#7f7f7f"
         id="tspan1097">p_out.x</tspan></tspan></text>
  <text
     xml:space="preserve"
     style="font-style:italic;font-variant:normal;font-weight:400;font-size:15.9375px;line-height:125%;font-family:Arial;text-align:start;letter-spacing:0px;word-spacing:0px;text-anchor:start;fill:#000000;fill-opacity:1;stroke:none"
     x="265.00812"
     y="109.47793"
     id="text1107"><tspan
       sodipodi:role="line"
       x="265.00812"
       y="109.47793"
       id="tspan1105"><tspan
         dx="0"
         dy="0"
         style="font-style:italic;font-variant:normal;font-weight:400;font-size:15.9375px;font-family:Arial;fill:#7f7f7f"
         id="tspan1103">= </tspan></tspan></text>
  <text
     xml:space="preserve"
     style="font-style:italic;font-variant:normal;font-weight:400;font-size:15.9375px;line-height:125%;font-family:Arial;text-align:start;letter-spacing:0px;word-spacing:0px;text-anchor:start;fill:#000000;fill-opacity:1;stroke:none"
     x="276.6651"
     y="109.47793"
     id="text1113"><tspan
       sodipodi:role="line"
       x="276.6651"
       y="109.47793"
       id="tspan1111"><tspan
         dx="0"
         dy="0"
         style="font-style:italic;font-variant:normal;font-weight:400;font-size:15.9375px;font-family:Arial;fill:#7f7f7f"
         id="tspan1109">p_in.x</tspan></tspan></text>
  <text
     xml:space="preserve"
     style="font-style:italic;font-variant:normal;font-weight:400;font-size:15.9375px;line-height:125%;font-family:Arial;text-align:start;letter-spacing:0px;word-spacing:0px;text-anchor:start;fill:#000000;fill-opacity:1;stroke:none"
     x="319.30087"
     y="109.47793"
     id="text1119"><tspan
       sodipodi:role="line"
       x="319.30087"
       y="109.47793"
       id="tspan1117"><tspan
         dx="0"
         dy="0"
         style="font-style:italic;font-variant:normal;font-weight:400;font-size:15.9375px;font-family:Arial;fill:#7f7f7f"
         id="tspan1115">* K1</tspan></tspan></text>
  <path
     style="fill:none;stroke:#4472c4;stroke-width:2.65475559px;stroke-linecap:butt;stroke-linejoin:miter;stroke-miterlimit:8;stroke-dasharray:none;stroke-opacity:1"
     d="m 323.31754,205.92321 4.53104,-11.29768 h 13.57319 l 4.51109,11.29768 -4.51109,11.31764 h -13.57319 z"
     id="path1121"
     inkscape:connector-curvature="0" />
  <path
     style="fill:#ffffff;fill-opacity:1;fill-rule:evenodd;stroke:none"
     d="M 598.63366,150.87196 643.90423,37.775376 h 135.81171 l 45.27057,113.096584 -45.27057,113.1365 H 643.90423 Z"
     id="path1123"
     inkscape:connector-curvature="0" />
  <path
     style="fill:none;stroke:#4472c4;stroke-width:2.67471623px;stroke-linecap:butt;stroke-linejoin:miter;stroke-miterlimit:8;stroke-dasharray:none;stroke-opacity:1"
     d="M 598.63366,150.87196 643.90423,37.775376 h 135.81171 l 45.27057,113.096584 -45.27057,113.1365 H 643.90423 Z"
     id="path1125"
     inkscape:connector-curvature="0" />
  <text
     xml:space="preserve"
     style="font-style:normal;font-variant:normal;font-weight:400;font-size:23.9375px;line-height:125%;font-family:Arial;text-align:start;letter-spacing:0px;word-spacing:0px;text-anchor:start;fill:#000000;fill-opacity:1;stroke:none"
     x="543.6239"
     y="83.754044"
     id="text1131"><tspan
       sodipodi:role="line"
       x="543.6239"
       y="83.754044"
       id="tspan1129"><tspan
         dx="0"
         dy="0"
         style="font-style:normal;font-variant:normal;font-weight:400;font-size:23.9375px;font-family:Arial;fill:#4472c4"
         id="tspan1127">drivers</tspan></tspan></text>
  <text
     xml:space="preserve"
     style="font-style:normal;font-variant:normal;font-weight:400;font-size:23.9375px;line-height:125%;font-family:Arial;text-align:start;letter-spacing:0px;word-spacing:0px;text-anchor:start;fill:#000000;fill-opacity:1;stroke:none"
     x="647.29376"
     y="107.04296"
     id="text1137"><tspan
       sodipodi:role="line"
       x="647.29376"
       y="107.04296"
       id="tspan1135"><tspan
         dx="0"
         dy="0"
         style="font-style:normal;font-variant:normal;font-weight:400;font-size:23.9375px;font-family:Arial;fill:#4472c4"
         id="tspan1133">Run</tspan></tspan></text>
  <text
     xml:space="preserve"
     style="font-style:italic;font-variant:normal;font-weight:400;font-size:18.6875px;line-height:125%;font-family:Arial;text-align:start;letter-spacing:0px;word-spacing:0px;text-anchor:start;fill:#000000;fill-opacity:1;stroke:none"
     x="647.29376"
     y="130.83595"
     id="text1143"><tspan
       sodipodi:role="line"
       x="647.29376"
       y="130.83595"
       id="tspan1141"><tspan
         dx="0"
         dy="0"
         style="font-style:italic;font-variant:normal;font-weight:400;font-size:18.6875px;font-family:Arial;fill:#4472c4"
         id="tspan1139">c</tspan></tspan></text>
  <text
     xml:space="preserve"
     style="font-style:italic;font-variant:normal;font-weight:400;font-size:18.6875px;line-height:125%;font-family:Arial;text-align:start;letter-spacing:0px;word-spacing:0px;text-anchor:start;fill:#000000;fill-opacity:1;stroke:none"
     x="655.11835"
     y="130.83595"
     id="text1149"><tspan
       sodipodi:role="line"
       x="655.11835"
       y="130.83595"
       id="tspan1147"><tspan
         dx="0"
         dy="0"
         style="font-style:italic;font-variant:normal;font-weight:400;font-size:18.6875px;font-family:Arial;fill:#4472c4"
         id="tspan1145">lass: </tspan></tspan></text>
  <text
     xml:space="preserve"
     style="font-style:italic;font-variant:normal;font-weight:400;font-size:18.6875px;line-height:125%;font-family:Arial;text-align:start;letter-spacing:0px;word-spacing:0px;text-anchor:start;fill:#000000;fill-opacity:1;stroke:none"
     x="692.80389"
     y="130.83595"
     id="text1155"><tspan
       sodipodi:role="line"
       x="692.80389"
       y="130.83595"
       id="tspan1153"><tspan
         dx="0"
         dy="0"
         style="font-style:italic;font-variant:normal;font-weight:400;font-size:18.6875px;font-family:Arial;fill:#4472c4"
         id="tspan1151">RunOnce</tspan></tspan></text>
  <text
     xml:space="preserve"
     style="font-style:normal;font-variant:normal;font-weight:400;font-size:23.9375px;line-height:125%;font-family:Arial;text-align:start;letter-spacing:0px;word-spacing:0px;text-anchor:start;fill:#000000;fill-opacity:1;stroke:none"
     x="291.34329"
     y="186.53191"
     id="text1161"><tspan
       sodipodi:role="line"
       x="291.34329"
       y="186.53191"
       id="tspan1159"><tspan
         dx="0"
         dy="0"
         style="font-style:normal;font-variant:normal;font-weight:400;font-size:23.9375px;font-family:Arial;fill:#4472c4"
         id="tspan1157">drivers</tspan></tspan></text>
  <path
     style="fill:none;stroke:#7f7f7f;stroke-width:1.31739748px;stroke-linecap:butt;stroke-linejoin:miter;stroke-miterlimit:8;stroke-dasharray:none;stroke-opacity:1"
     d="m 533.9215,10.828609 h 325.996 V 286.76351 h -325.996 z"
     id="path1163"
     inkscape:connector-curvature="0" />
  <text
     xml:space="preserve"
     style="font-style:italic;font-variant:normal;font-weight:400;font-size:15.9375px;line-height:125%;font-family:Arial;text-align:start;letter-spacing:0px;word-spacing:0px;text-anchor:start;fill:#000000;fill-opacity:1;stroke:none"
     x="814.92859"
     y="277.70142"
     id="text1169"><tspan
       sodipodi:role="line"
       x="814.92859"
       y="277.70142"
       id="tspan1167"><tspan
         dx="0"
         dy="0"
         style="font-style:italic;font-variant:normal;font-weight:400;font-size:15.9375px;font-family:Arial;fill:#595959"
         id="tspan1165">zoom</tspan></tspan></text>
  <path
     style="fill:none;stroke:#4472c4;stroke-width:2.67471623px;stroke-linecap:butt;stroke-linejoin:miter;stroke-miterlimit:8;stroke-dasharray:none;stroke-opacity:1"
     d="m 718.55676,177.65904 11.29768,-28.26416 h 33.93296 l 11.29769,28.26416 -11.29769,28.26417 h -33.93296 z"
     id="path1171"
     inkscape:connector-curvature="0" />
  <text
     xml:space="preserve"
     style="font-style:normal;font-variant:normal;font-weight:400;font-size:37.1875px;line-height:125%;font-family:Arial;text-align:start;letter-spacing:0px;word-spacing:0px;text-anchor:start;fill:#000000;fill-opacity:1;stroke:none"
     x="737.34357"
     y="190.19627"
     id="text1177"><tspan
       sodipodi:role="line"
       x="737.34357"
       y="190.19627"
       id="tspan1175"><tspan
         dx="0"
         dy="0"
         style="font-style:normal;font-variant:normal;font-weight:400;font-size:37.1875px;font-family:Arial;fill:#4a76c6"
         id="tspan1173">1</tspan></tspan></text>
</svg>
